The Effects of Climate Change on the Breeding Success and Timing of African White-backed Vultures
…
Warning: There was 1 warning in `summarise()`.
ℹ In argument: `max_wind_win = max(MXSPD, na.rm = TRUE)`.
ℹ In group 25: `year = 2016`.
Caused by warning in `max()`:
! no non-missing arguments to max; returning -Inf

weather_march_by_year

# A tibble: 33 × 11
    year mean_temp_win max_temp_win min_temp_win total_rain_win max_rain_win
   <dbl>         <dbl>        <dbl>        <dbl>          <dbl>        <dbl>
 1  1992          23.8         37            5.3          55.1         23.1 
 2  1993          21.0         31.6          5.8          12.7          7.62
 3  1994          21.7         34.5          9.7          38.4         11.4 
 4  1995          22.1         35            9.4         155.          42.7 
 5  1996          22.3         34.7          8.2           3.55         2.03
 6  1997          19.8         33.1          8.8         118.          33.0 
 7  1998          22.2         36.7          9           100.          32   
 8  1999          25.4         37.8         12.8          39.9         20.1 
 9  2000          22.3         33.2         12.4          89.6         28.2 
10  2001          23.2         36           11.3          57.7         24.1 
# ℹ 23 more rows
# ℹ 5 more variables: rain_days_win <int>, mean_wind_win <dbl>,
#   max_wind_win <dbl>, hail_days_win <dbl>, n_days <int>
…
timing_by_year

# A tibble: 32 × 6
    year lay_DOY_median lay_DOY_mean n_nests first_DOY last_DOY
   <int>          <dbl>        <dbl>   <int>     <dbl>    <dbl>
 1  1993           148.         148.      28       103      203
 2  1994           159          162.      39       128      212
 3  1995           156.         154.      22       132      171
 4  1996           158          158.      35       129      209
 5  1997           151          152.      46       132      190
 6  1998           148          151.      45       122      188
 7  1999           152          153.      37       136      192
 8  2000           153          155.      41       124      201
 9  2001           156.         158.      56       129      208
10  2002           154.         155.      30        20      185
# ℹ 22 more rows
…
[1] 32

summary(timing_by_year$n_nests) 

   Min. 1st Qu.  Median    Mean 3rd Qu.    Max. 
  22.00   37.75   45.50   45.59   53.00   67.00 

obj3_year_df <- timing_by_year  |> 
  left_join(weather_march_by_year, by = "year")  |> 
  arrange(year)

obj3_year_df

# A tibble: 32 × 16
    year lay_DOY_median lay_DOY_mean n_nests first_DOY last_DOY mean_temp_win
   <dbl>          <dbl>        <dbl>   <int>     <dbl>    <dbl>         <dbl>
 1  1993           148.         148.      28       103      203          21.0
 2  1994           159          162.      39       128      212          21.7
 3  1995           156.         154.      22       132      171          22.1
 4  1996           158          158.      35       129      209          22.3
 5  1997           151          152.      46       132      190          19.8
 6  1998           148          151.      45       122      188          22.2
 7  1999           152          153.      37       136      192          25.4
 8  2000           153          155.      41       124      201          22.3
 9  2001           156.         158.      56       129      208          23.2
10  2002           154.         155.      30        20      185          23.5
# ℹ 22 more rows
# ℹ 9 more variables: max_temp_win <dbl>, min_temp_win <dbl>,
#   total_rain_win <dbl>, max_rain_win <dbl>, rain_days_win <int>,
#   mean_wind_win <dbl>, max_wind_win <dbl>, hail_days_win <dbl>, n_days <int>
…
timing_by_year

# A tibble: 32 × 6
    year lay_DOY_median lay_DOY_mean n_nests first_DOY last_DOY
   <int>          <dbl>        <dbl>   <int>     <dbl>    <dbl>
 1  1993           148.         148.      28       103      203
 2  1994           159          162.      39       128      212
 3  1995           156.         154.      22       132      171
 4  1996           158          158.      35       129      209
 5  1997           151          152.      46       132      190
 6  1998           148          151.      45       122      188
 7  1999           152          153.      37       136      192
 8  2000           153          155.      41       124      201
 9  2001           156.         158.      56       129      208
10  2002           154.         155.      30        20      185
# ℹ 22 more rows
…
obj3_year_df <- timing_by_year |>
  left_join(weather_march_by_year, by = "year") |>
  left_join(
    weather_annual_by_year |>
      dplyr::select(year,
                    lag_mean_temp_annual,
                    lag_total_rain_annual,
                    lag_rain_days_annual),
    by = "year"
  ) |>
  arrange(year)

obj3_year_df

# A tibble: 32 × 19
    year lay_DOY_median lay_DOY_mean n_nests first_DOY last_DOY mean_temp_win
   <dbl>          <dbl>        <dbl>   <int>     <dbl>    <dbl>         <dbl>
 1  1993           148.         148.      28       103      203          21.0
 2  1994           159          162.      39       128      212          21.7
 3  1995           156.         154.      22       132      171          22.1
 4  1996           158          158.      35       129      209          22.3
 5  1997           151          152.      46       132      190          19.8
 6  1998           148          151.      45       122      188          22.2
 7  1999           152          153.      37       136      192          25.4
 8  2000           153          155.      41       124      201          22.3
 9  2001           156.         158.      56       129      208          23.2
10  2002           154.         155.      30        20      185          23.5
# ℹ 22 more rows
# ℹ 12 more variables: max_temp_win <dbl>, min_temp_win <dbl>,
#   total_rain_win <dbl>, max_rain_win <dbl>, rain_days_win <int>,
#   mean_wind_win <dbl>, max_wind_win <dbl>, hail_days_win <dbl>, n_days <int>,
#   lag_mean_temp_annual <dbl>, lag_total_rain_annual <dbl>,
#   lag_rain_days_annual <int>
…
