The Effects of Climate Change on the Breeding Success and Timing of African White-backed Vultures
…
Weather variable correlation

weather_yearly |>
  dplyr::select(mean_temp, max_temp, min_temp, total_rain, max_rain,
                rain_days, mean_wind, max_wind, hail_days)

# A tibble: 33 × 9
   mean_temp max_temp min_temp total_rain max_rain rain_days mean_wind max_wind
       <dbl>    <dbl>    <dbl>      <dbl>    <dbl>     <int>     <dbl>    <dbl>
 1      19.3     39.4     23.4       190.     24.9        45      4.42     14.9
 2      18.4     39.1     23.9       568.    111          67      4.05     15.4
 3      17.8     39.6     21.4       378.     37.3        39      3.75     13.9
 4      18.5     39.1     24.7       567.     81.3        70      3.79     18  
 5      17.7     37.5     21         516.     39.1        79      3.98     14.9
 6      18.5     40.9     23.2       381.     33.0        65      3.76     13.9
 7      18.7     37.8     22.6       550.     32          84      4.00     20.6
 8      19.4     37.9     23         354.     42.2        62      3.95     28.3
 9      18.0     37.2     21.7       578.     78.5        88      3.61     20.6
10      19.0     39.9     22.8       548.     27.4       105      3.78     27.8
# ℹ 23 more rows
# ℹ 1 more variable: hail_days <int>
…
